In-class-Ex05 – ISSS626
…
Code

HCSA <- wm_idw %>% 
  mutate(local_Gi = local_gstar_perm(
    GDPPC, nb, wts, nsim = 99),
         .before = 1) %>%
  unnest(local_Gi)
HCSA

Simple feature collection with 88 features and 18 fields
Geometry type: POLYGON
Dimension:     XY
Bounding box:  xmin: 108.7831 ymin: 24.6342 xmax: 114.2544 ymax: 30.12812
Geodetic CRS:  WGS 84
# A tibble: 88 × 19
    gi_star cluster     e_gi  var_gi std_dev p_value p_sim p_folded_sim skewness
      <dbl> <fct>      <dbl>   <dbl>   <dbl>   <dbl> <dbl>        <dbl>    <dbl>
 1  0.261   Low     0.00126  1.28e-7  0.269  7.88e-1  0.64         0.32    0.899
 2 -0.276   Low     0.00102  6.54e-8 -0.325  7.45e-1  0.88         0.44    1.05 
 3  0.00573 High    0.00150  2.89e-7  0.0445 9.65e-1  0.82         0.41    1.26 
 4  0.528   High    0.00154  2.76e-7  0.356  7.22e-1  0.62         0.31    0.776
 5  0.466   High    0.00130  2.19e-7  0.582  5.60e-1  0.42         0.21    1.65 
 6 -0.445   High    0.000956 7.01e-8 -0.455  6.49e-1  0.74         0.37    1.18 
 7  2.99    High    0.000692 4.50e-8  3.01   2.61e-3  0.04         0.02    1.06 
 8  2.04    High    0.00150  1.21e-7  2.10   3.53e-2  0.1          0.05    0.582
 9  4.42    High    0.00129  9.85e-8  4.66   3.15e-6  0.02         0.01    0.854
10  1.21    Low     0.00180  1.57e-7  1.21   2.28e-1  0.28         0.14    0.531
# ℹ 78 more rows
# ℹ 10 more variables: kurtosis <dbl>, nb <nb>, wts <list>, NAME_2 <chr>,
#   ID_3 <int>, NAME_3 <chr>, ENGTYPE_3 <chr>, County <chr>, GDPPC <int>,
#   geometry <POLYGON [°]>
…
